Exploratory Project #2: Modeling
…
## # A tibble: 101 x 3
##      prob prediction truth
##     <dbl>      <dbl> <fct>
##  1 0.722           1 1    
##  2 0.142           0 0    
##  3 0.761           1 1    
##  4 0.105           0 0    
##  5 0.460           0 1    
##  6 0.285           0 0    
##  7 0.0967          0 1    
##  8 0.269           0 0    
##  9 0.928           1 1    
## 10 0.613           1 1    
## # ... with 91 more rows
…
